%%%%%%%%%%%%%%%%%%%%%%%%%%%%%%%%%%%%%%%%%%%%%%%%%%
%%%%%%%%%%%%%%%%%%%%%%%%%%%%%%%%%%%%%%%%%%%%%%%%%%
%%%%%
%%%%% Information
%%%%%
%%%%%%%%%%%%%%%%%%%%%%%%%%%%%%%%%%%%%%%%%%%%%%%%%%
%%%%%%%%%%%%%%%%%%%%%%%%%%%%%%%%%%%%%%%%%%%%%%%%%%

- Moode Audio Player
- Also for anything that plays internet radio

%%%%%%%%%%%%%%%%%%%%%%%%%%%%%%%%%%%%%%%%%%%%%%%%%%
%%%%%%%%%%%%%%%%%%%%%%%%%%%%%%%%%%%%%%%%%%%%%%%%%%
%%%%%
%%%%% Stations
%%%%%
%%%%%%%%%%%%%%%%%%%%%%%%%%%%%%%%%%%%%%%%%%%%%%%%%%
%%%%%%%%%%%%%%%%%%%%%%%%%%%%%%%%%%%%%%%%%%%%%%%%%%

%%%%%%%%%%%%%%%%%%%%
%%%%% Party
%%%%%%%%%%%%%%%%%%%%

Amsterdam Trance Radio
http://185.33.22.13:7700

Dubstep and Nightcore radio
http://listen.radionomy.com:80/Dubstep-Nightcoreradio

EDM and Nightcore
http://listen.radionomy.com:80/EDM-Nightcore

%%%%%%%%%%%%%%%%%%%%
%%%%% Japanese
%%%%%%%%%%%%%%%%%%%%

70s-90s J-pop Stream
http://198.178.123.14:7002

AnimeNfo
http://momori.animenfo.com:8000

Big B Radio - JPOP
http://50.7.173.162:8089

Blue Heron Radio
http://sc6.shoutcaststreaming.us:8016

%%%%%%%%%%%%%%%%%%%%
%%%%% Korean
%%%%%%%%%%%%%%%%%%%%

Big B Radio - KPOP
http://50.7.173.162:8076

%%%%%%%%%%%%%%%%%%%%
%%%%% Touhou
%%%%%%%%%%%%%%%%%%%%

Gensokyo Radio
http://stream.gensokyoradio.net:8000

Touhou Radio
http://touhouradio.com:8000

%%%%%%%%%%%%%%%%%%%%
%%%%% Rap (New)
%%%%%%%%%%%%%%%%%%%%

ledjam
http://ledjamradio.ice.infomaniak.ch/ledjamradio.mp3

HOT 108 JAMZ
http://108.61.30.179:4030

POWERHITZ.COM
http://108.61.30.179:5000

%%%%%%%%%%%%%%%%%%%%
%%%%% Rap (Old)
%%%%%%%%%%%%%%%%%%%%

Old School 99
http://50.7.70.58:8546

Fresh Radio
http://173.192.105.231:4733/Live

%%%%%%%%%%%%%%%%%%%%
%%%%% Pop
%%%%%%%%%%%%%%%%%%%%

Hitradio OE3
http://194.232.200.156:8000

ANTENA1 - 94 7 FM
http://178.33.104.250:80/stream

####################################################################################################
####################################################################################################
#####
##### End
#####
####################################################################################################
####################################################################################################