%%%%%%%%%%%%%%%%%%%%%%%%%%%%%%%%%%%%%%%%%%%%%%%%%%
%%%%%%%%%%%%%%%%%%%%%%%%%%%%%%%%%%%%%%%%%%%%%%%%%%
%%%%%
%%%%% Information
%%%%%
%%%%%%%%%%%%%%%%%%%%%%%%%%%%%%%%%%%%%%%%%%%%%%%%%%
%%%%%%%%%%%%%%%%%%%%%%%%%%%%%%%%%%%%%%%%%%%%%%%%%%

- Jekyll
- Arch Linux

%%%%%%%%%%%%%%%%%%%%%%%%%%%%%%%%%%%%%%%%%%%%%%%%%%
%%%%%%%%%%%%%%%%%%%%%%%%%%%%%%%%%%%%%%%%%%%%%%%%%%
%%%%%
%%%%% Software
%%%%%
%%%%%%%%%%%%%%%%%%%%%%%%%%%%%%%%%%%%%%%%%%%%%%%%%%
%%%%%%%%%%%%%%%%%%%%%%%%%%%%%%%%%%%%%%%%%%%%%%%%%%

sudo pacman -S --needed 'ruby'

%%%%%%%%%%%%%%%%%%%%%%%%%%%%%%%%%%%%%%%%%%%%%%%%%%
%%%%%%%%%%%%%%%%%%%%%%%%%%%%%%%%%%%%%%%%%%%%%%%%%%
%%%%%
%%%%% Install
%%%%%
%%%%%%%%%%%%%%%%%%%%%%%%%%%%%%%%%%%%%%%%%%%%%%%%%%
%%%%%%%%%%%%%%%%%%%%%%%%%%%%%%%%%%%%%%%%%%%%%%%%%%

%%%%%%%%%%%%%%%%%%%%
%%%%% Update gems
%%%%%%%%%%%%%%%%%%%%

gem update

%%%%%%%%%%%%%%%%%%%%
%%%%% Jekyll
%%%%%%%%%%%%%%%%%%%%

gem install 'jekyll'

%%%%%%%%%%%%%%%%%%%%%%%%%%%%%%%%%%%%%%%%%%%%%%%%%%
%%%%%%%%%%%%%%%%%%%%%%%%%%%%%%%%%%%%%%%%%%%%%%%%%%
%%%%%
%%%%% Main (Client)
%%%%%
%%%%%%%%%%%%%%%%%%%%%%%%%%%%%%%%%%%%%%%%%%%%%%%%%%
%%%%%%%%%%%%%%%%%%%%%%%%%%%%%%%%%%%%%%%%%%%%%%%%%%

%%%%%%%%%%%%%%%%%%%%
%%%%% Create Folder
%%%%%%%%%%%%%%%%%%%%

'/home/espionage724/.gem/ruby/2.3.0/bin/jekyll' new '/home/espionage724/main'

%%%%%%%%%%%%%%%%%%%%
%%%%% Test Site
%%%%%%%%%%%%%%%%%%%%

cd '/home/espionage724/main' && '/home/espionage724/.gem/ruby/2.3.0/bin/jekyll' serve

http://127.0.0.1:4000

%%%%%%%%%%%%%%%%%%%%
%%%%% Generate Site
%%%%%%%%%%%%%%%%%%%%

cd '/home/espionage724/main' && '/home/espionage724/.gem/ruby/2.3.0/bin/jekyll' build

%%%%%%%%%%%%%%%%%%%%
%%%%% Git Push Config
%%%%%%%%%%%%%%%%%%%%

TODO

%%%%%%%%%%%%%%%%%%%%
%%%%% Git Push Site
%%%%%%%%%%%%%%%%%%%%

TODO

%%%%%%%%%%%%%%%%%%%%
%%%%% Git Pull/Update/Restore Config
%%%%%%%%%%%%%%%%%%%%

TODO

%%%%%%%%%%%%%%%%%%%%%%%%%%%%%%%%%%%%%%%%%%%%%%%%%%
%%%%%%%%%%%%%%%%%%%%%%%%%%%%%%%%%%%%%%%%%%%%%%%%%%
%%%%%
%%%%% Main (Server)
%%%%%
%%%%%%%%%%%%%%%%%%%%%%%%%%%%%%%%%%%%%%%%%%%%%%%%%%
%%%%%%%%%%%%%%%%%%%%%%%%%%%%%%%%%%%%%%%%%%%%%%%%%%

%%%%%%%%%%%%%%%%%%%%
%%%%% Git Pull Site
%%%%%%%%%%%%%%%%%%%%

TODO

%%%%%%%%%%%%%%%%%%%%%%%%%%%%%%%%%%%%%%%%%%%%%%%%%%
%%%%%%%%%%%%%%%%%%%%%%%%%%%%%%%%%%%%%%%%%%%%%%%%%%
%%%%%
%%%%% Blog (Client)
%%%%%
%%%%%%%%%%%%%%%%%%%%%%%%%%%%%%%%%%%%%%%%%%%%%%%%%%
%%%%%%%%%%%%%%%%%%%%%%%%%%%%%%%%%%%%%%%%%%%%%%%%%%

%%%%%%%%%%%%%%%%%%%%
%%%%% Create Folder
%%%%%%%%%%%%%%%%%%%%

'/home/espionage724/.gem/ruby/2.3.0/bin/jekyll' new '/home/espionage724/blog'

%%%%%%%%%%%%%%%%%%%%
%%%%% Test Site
%%%%%%%%%%%%%%%%%%%%

cd '/home/espionage724/blog' && '/home/espionage724/.gem/ruby/2.3.0/bin/jekyll' serve

http://127.0.0.1:4000

%%%%%%%%%%%%%%%%%%%%
%%%%% Generate Site
%%%%%%%%%%%%%%%%%%%%

cd '/home/espionage724/blog' && '/home/espionage724/.gem/ruby/2.3.0/bin/jekyll' build

%%%%%%%%%%%%%%%%%%%%
%%%%% Git Push Config
%%%%%%%%%%%%%%%%%%%%

TODO

%%%%%%%%%%%%%%%%%%%%
%%%%% Git Push Site
%%%%%%%%%%%%%%%%%%%%

TODO

%%%%%%%%%%%%%%%%%%%%
%%%%% Git Pull/Update/Restore Config
%%%%%%%%%%%%%%%%%%%%

TODO

%%%%%%%%%%%%%%%%%%%%%%%%%%%%%%%%%%%%%%%%%%%%%%%%%%
%%%%%%%%%%%%%%%%%%%%%%%%%%%%%%%%%%%%%%%%%%%%%%%%%%
%%%%%
%%%%% Blog (Server)
%%%%%
%%%%%%%%%%%%%%%%%%%%%%%%%%%%%%%%%%%%%%%%%%%%%%%%%%
%%%%%%%%%%%%%%%%%%%%%%%%%%%%%%%%%%%%%%%%%%%%%%%%%%

%%%%%%%%%%%%%%%%%%%%
%%%%% Git Pull Site
%%%%%%%%%%%%%%%%%%%%

TODO

####################################################################################################
####################################################################################################
#####
##### End
#####
####################################################################################################
####################################################################################################