%%%%%%%%%%%%%%%%%%%%%%%%%%%%%%%%%%%%%%%%%%%%%%%%%%
%%%%%%%%%%%%%%%%%%%%%%%%%%%%%%%%%%%%%%%%%%%%%%%%%%
%%%%%
%%%%% Information
%%%%%
%%%%%%%%%%%%%%%%%%%%%%%%%%%%%%%%%%%%%%%%%%%%%%%%%%
%%%%%%%%%%%%%%%%%%%%%%%%%%%%%%%%%%%%%%%%%%%%%%%%%%

- StepMania (git)
- vsftpd
- Minimal install for Hatebeat
- Arch Linux

%%%%%%%%%%%%%%%%%%%%%%%%%%%%%%%%%%%%%%%%%%%%%%%%%%
%%%%%%%%%%%%%%%%%%%%%%%%%%%%%%%%%%%%%%%%%%%%%%%%%%
%%%%%
%%%%% TODOs
%%%%%
%%%%%%%%%%%%%%%%%%%%%%%%%%%%%%%%%%%%%%%%%%%%%%%%%%
%%%%%%%%%%%%%%%%%%%%%%%%%%%%%%%%%%%%%%%%%%%%%%%%%%

- Update git branches to 'master' once '5_1_0' switches over

%%%%%%%%%%%%%%%%%%%%%%%%%%%%%%%%%%%%%%%%%%%%%%%%%%
%%%%%%%%%%%%%%%%%%%%%%%%%%%%%%%%%%%%%%%%%%%%%%%%%%
%%%%%
%%%%% Software
%%%%%
%%%%%%%%%%%%%%%%%%%%%%%%%%%%%%%%%%%%%%%%%%%%%%%%%%
%%%%%%%%%%%%%%%%%%%%%%%%%%%%%%%%%%%%%%%%%%%%%%%%%%

sudo pacman -S --needed libmad glew gtk2 libpng libvorbis mesa cmake yasm nasm git alsa-lib vsftpd

%%%%%%%%%%%%%%%%%%%%%%%%%%%%%%%%%%%%%%%%%%%%%%%%%%
%%%%%%%%%%%%%%%%%%%%%%%%%%%%%%%%%%%%%%%%%%%%%%%%%%
%%%%%
%%%%% Create User
%%%%%
%%%%%%%%%%%%%%%%%%%%%%%%%%%%%%%%%%%%%%%%%%%%%%%%%%
%%%%%%%%%%%%%%%%%%%%%%%%%%%%%%%%%%%%%%%%%%%%%%%%%%

sudo useradd -r -U 'stepmania' -d '/home/stepmania' -m && sudo passwd 'stepmania'

%%%%%%%%%%%%%%%%%%%%%%%%%%%%%%%%%%%%%%%%%%%%%%%%%%
%%%%%%%%%%%%%%%%%%%%%%%%%%%%%%%%%%%%%%%%%%%%%%%%%%
%%%%%
%%%%% Download Source
%%%%%
%%%%%%%%%%%%%%%%%%%%%%%%%%%%%%%%%%%%%%%%%%%%%%%%%%
%%%%%%%%%%%%%%%%%%%%%%%%%%%%%%%%%%%%%%%%%%%%%%%%%%

%%%%%%%%%%%%%%%%%%%%
%%%%% Switch User
%%%%%%%%%%%%%%%%%%%%

sudo su 'stepmania' -s '/bin/bash'

%%%%%%%%%%%%%%%%%%%%
%%%%% Download Source
%%%%%%%%%%%%%%%%%%%%

cd ~ && git clone -b '5_1_0' 'https://github.com/stepmania/stepmania.git' ~/'sm-src' && cd ~/'sm-src' && git submodule init && git submodule update && sync

%%%%%%%%%%%%%%%%%%%%%%%%%%%%%%%%%%%%%%%%%%%%%%%%%%
%%%%%%%%%%%%%%%%%%%%%%%%%%%%%%%%%%%%%%%%%%%%%%%%%%
%%%%%
%%%%% Compile
%%%%%
%%%%%%%%%%%%%%%%%%%%%%%%%%%%%%%%%%%%%%%%%%%%%%%%%%
%%%%%%%%%%%%%%%%%%%%%%%%%%%%%%%%%%%%%%%%%%%%%%%%%%

%%%%%%%%%%%%%%%%%%%%
%%%%% Switch User
%%%%%%%%%%%%%%%%%%%%

sudo su 'stepmania' -s '/bin/bash'

%%%%%%%%%%%%%%%%%%%
%%%%% Initial
%%%%%%%%%%%%%%%%%%%%

mkdir -p ~/'sm-build' ~/'sm-run'

%%%%%%%%%%%%%%%%%%%%
%%%%% Compile
%%%%%%%%%%%%%%%%%%%%

cd ~/'sm-build' && cmake ~/'sm-src' -G 'Unix Makefiles' -DCMAKE_BUILD_TYPE='Release' && cmake ~/'sm-src' -DCMAKE_INSTALL_PREFIX=~/'sm-run' -DCMAKE_CXX_FLAGS='-O3 -pipe -march=native' -DCMAKE_C_FLAGS='-O3 -pipe -march=native' && sync && make install && sync

%%%%%%%%%%%%%%%%%%%%%%%%%%%%%%%%%%%%%%%%%%%%%%%%%%
%%%%%%%%%%%%%%%%%%%%%%%%%%%%%%%%%%%%%%%%%%%%%%%%%%
%%%%%
%%%%% Launcher
%%%%%
%%%%%%%%%%%%%%%%%%%%%%%%%%%%%%%%%%%%%%%%%%%%%%%%%%
%%%%%%%%%%%%%%%%%%%%%%%%%%%%%%%%%%%%%%%%%%%%%%%%%%

%%%%%%%%%%%%%%%%%%%%
%%%%% Switch User
%%%%%%%%%%%%%%%%%%%%

sudo su 'stepmania' -s '/bin/bash'

%%%%%%%%%%%%%%%%%%%%
%%%%% Launcher
%%%%%%%%%%%%%%%%%%%%

nano ~/'.xinitrc'

-------------------------
exec ~/'sm-run/stepmania-5.1/stepmania'
-------------------------

%%%%%%%%%%%%%%%%%%%%
%%%%% Execute
%%%%%%%%%%%%%%%%%%%%

startx

%%%%%%%%%%%%%%%%%%%%%%%%%%%%%%%%%%%%%%%%%%%%%%%%%%
%%%%%%%%%%%%%%%%%%%%%%%%%%%%%%%%%%%%%%%%%%%%%%%%%%
%%%%%
%%%%% Configuration
%%%%%
%%%%%%%%%%%%%%%%%%%%%%%%%%%%%%%%%%%%%%%%%%%%%%%%%%
%%%%%%%%%%%%%%%%%%%%%%%%%%%%%%%%%%%%%%%%%%%%%%%%%%

%%%%%%%%%%%%%%%%%%%%
%%%%% Switch User
%%%%%%%%%%%%%%%%%%%%

sudo su 'stepmania' -s '/bin/bash'

%%%%%%%%%%%%%%%%%%%%
%%%%% Preferences
%%%%%%%%%%%%%%%%%%%%

nano ~/'.stepmania-5.0/Save/Preferences.ini'

-------------------------
GlobalOffsetSeconds=-0.065612
MachineName=Hatebeat
ShowMouseCursor=0
UpdateCheckEnable=0
VideoRenderers=opengl
-------------------------

%%%%%%%%%%%%%%%%%%%%
%%%%% Static.ini
%%%%%%%%%%%%%%%%%%%%

- TODO: Verify this on a clean install

nano ~/'sm-run/stepmania-5.1/Data/Static.ini'

%%%%%%%%%%%%%%%%%%%%%%%%%%%%%%%%%%%%%%%%%%%%%%%%%%
%%%%%%%%%%%%%%%%%%%%%%%%%%%%%%%%%%%%%%%%%%%%%%%%%%
%%%%%
%%%%% FTP Server
%%%%%
%%%%%%%%%%%%%%%%%%%%%%%%%%%%%%%%%%%%%%%%%%%%%%%%%%
%%%%%%%%%%%%%%%%%%%%%%%%%%%%%%%%%%%%%%%%%%%%%%%%%%

%%%%%%%%%%%%%%%%%%%%
%%%%% Firewall
%%%%%%%%%%%%%%%%%%%%

sudo ufw allow from '192.168.1.0/24' to any port '21'

%%%%%%%%%%%%%%%%%%%%
%%%%% Service
%%%%%%%%%%%%%%%%%%%%

sudo systemctl enable 'vsftpd'

%%%%%%%%%%%%%%%%%%%%
%%%%% Configuration
%%%%%%%%%%%%%%%%%%%%

sudo -e '/etc/vsftpd.conf' && sudo systemctl restart 'vsftpd'

-------------------------
anonymous_enable=NO
local_enable=YES
write_enable=YES

chroot_local_user=YES

allow_writeable_chroot=YES
pasv_enable=NO
seccomp_sandbox=NO
local_root=/home/stepmania/.stepmania-5.0
-------------------------

%%%%%%%%%%%%%%%%%%%%%%%%%%%%%%%%%%%%%%%%%%%%%%%%%%
%%%%%%%%%%%%%%%%%%%%%%%%%%%%%%%%%%%%%%%%%%%%%%%%%%
%%%%%
%%%%% Autostart
%%%%%
%%%%%%%%%%%%%%%%%%%%%%%%%%%%%%%%%%%%%%%%%%%%%%%%%%
%%%%%%%%%%%%%%%%%%%%%%%%%%%%%%%%%%%%%%%%%%%%%%%%%%

%%%%%%%%%%%%%%%%%%%%
%%%%% Systemd
%%%%%%%%%%%%%%%%%%%%

sudo systemctl edit 'getty@tty1'

-------------------------
[Service]
ExecStart=
ExecStart=-/usr/bin/agetty --autologin stepmania --noclear %I $TERM
-------------------------

%%%%%%%%%%%%%%%%%%%%
%%%%% Switch User
%%%%%%%%%%%%%%%%%%%%

sudo su 'stepmania' -s '/bin/bash'

%%%%%%%%%%%%%%%%%%%%
%%%%% Autostart xinitrc
%%%%%%%%%%%%%%%%%%%%

nano ~/'.bash_profile'

- Add
-------------------------
[[ -z $DISPLAY && $XDG_VTNR -eq 1 ]] && exec startx
-------------------------

%%%%%%%%%%%%%%%%%%%%%%%%%%%%%%%%%%%%%%%%%%%%%%%%%%
%%%%%%%%%%%%%%%%%%%%%%%%%%%%%%%%%%%%%%%%%%%%%%%%%%
%%%%%
%%%%% Update
%%%%%
%%%%%%%%%%%%%%%%%%%%%%%%%%%%%%%%%%%%%%%%%%%%%%%%%%
%%%%%%%%%%%%%%%%%%%%%%%%%%%%%%%%%%%%%%%%%%%%%%%%%%

%%%%%%%%%%%%%%%%%%%%
%%%%% Switch User
%%%%%%%%%%%%%%%%%%%%

sudo su 'stepmania' -s '/bin/bash'

%%%%%%%%%%%%%%%%%%%%
%%%%% Update
%%%%%%%%%%%%%%%%%%%%

git -C ~/'sm-src' pull origin '5_1_0' && git -C ~/'sm-src' submodule update && cd ~/'sm-build' && cmake ~/'sm-src' -G 'Unix Makefiles' -DCMAKE_BUILD_TYPE='Release' && cmake ~/'sm-src' -DCMAKE_INSTALL_PREFIX=~/'sm-run' -DCMAKE_CXX_FLAGS='-O3 -pipe -march=native' -DCMAKE_C_FLAGS='-O3 -pipe -march=native' && sync && make install && sync

####################################################################################################
####################################################################################################
#####
##### End
#####
####################################################################################################
####################################################################################################