%%%%%%%%%%%%%%%%%%%%%%%%%%%%%%%%%%%%%%%%%%%%%%%%%%
%%%%%%%%%%%%%%%%%%%%%%%%%%%%%%%%%%%%%%%%%%%%%%%%%%
%%%%%
%%%%% Information
%%%%%
%%%%%%%%%%%%%%%%%%%%%%%%%%%%%%%%%%%%%%%%%%%%%%%%%%
%%%%%%%%%%%%%%%%%%%%%%%%%%%%%%%%%%%%%%%%%%%%%%%%%%

- vsftpd
- Fedora Server 23

%%%%%%%%%%%%%%%%%%%%%%%%%%%%%%%%%%%%%%%%%%%%%%%%%%
%%%%%%%%%%%%%%%%%%%%%%%%%%%%%%%%%%%%%%%%%%%%%%%%%%
%%%%%
%%%%% Software
%%%%%
%%%%%%%%%%%%%%%%%%%%%%%%%%%%%%%%%%%%%%%%%%%%%%%%%%
%%%%%%%%%%%%%%%%%%%%%%%%%%%%%%%%%%%%%%%%%%%%%%%%%%

sudo dnf install 'vsftpd'

%%%%%%%%%%%%%%%%%%%%%%%%%%%%%%%%%%%%%%%%%%%%%%%%%%
%%%%%%%%%%%%%%%%%%%%%%%%%%%%%%%%%%%%%%%%%%%%%%%%%%
%%%%%
%%%%% SELinux
%%%%%
%%%%%%%%%%%%%%%%%%%%%%%%%%%%%%%%%%%%%%%%%%%%%%%%%%
%%%%%%%%%%%%%%%%%%%%%%%%%%%%%%%%%%%%%%%%%%%%%%%%%%

sudo setsebool -P 'ftpd_full_access=1'

%%%%%%%%%%%%%%%%%%%%%%%%%%%%%%%%%%%%%%%%%%%%%%%%%%
%%%%%%%%%%%%%%%%%%%%%%%%%%%%%%%%%%%%%%%%%%%%%%%%%%
%%%%%
%%%%% Firewall
%%%%%
%%%%%%%%%%%%%%%%%%%%%%%%%%%%%%%%%%%%%%%%%%%%%%%%%%
%%%%%%%%%%%%%%%%%%%%%%%%%%%%%%%%%%%%%%%%%%%%%%%%%%

sudo firewall-cmd --permanent --add-service='ftp' && sudo firewall-cmd --reload

%%%%%%%%%%%%%%%%%%%%%%%%%%%%%%%%%%%%%%%%%%%%%%%%%%
%%%%%%%%%%%%%%%%%%%%%%%%%%%%%%%%%%%%%%%%%%%%%%%%%%
%%%%%
%%%%% Services
%%%%%
%%%%%%%%%%%%%%%%%%%%%%%%%%%%%%%%%%%%%%%%%%%%%%%%%%
%%%%%%%%%%%%%%%%%%%%%%%%%%%%%%%%%%%%%%%%%%%%%%%%%%

sudo systemctl enable 'vsftpd'

%%%%%%%%%%%%%%%%%%%%%%%%%%%%%%%%%%%%%%%%%%%%%%%%%%
%%%%%%%%%%%%%%%%%%%%%%%%%%%%%%%%%%%%%%%%%%%%%%%%%%
%%%%%
%%%%% Configuration
%%%%%
%%%%%%%%%%%%%%%%%%%%%%%%%%%%%%%%%%%%%%%%%%%%%%%%%%
%%%%%%%%%%%%%%%%%%%%%%%%%%%%%%%%%%%%%%%%%%%%%%%%%%

%%%%%%%%%%%%%%%%%%%%
%%%%% Initial
%%%%%%%%%%%%%%%%%%%%

sudo -e '/etc/vsftpd/vsftpd.conf' && sudo systemctl restart 'vsftpd'

-------------------------
anonymous_enable=NO

local_root=/var/ftp
pasv_enable=YES
-------------------------

%%%%%%%%%%%%%%%%%%%%
%%%%% fstab
%%%%%%%%%%%%%%%%%%%%

sudo mkdir -p '/var/ftp/sdb1' '/var/ftp/sdc1' && sudo -e '/etc/fstab'

-------------------------
# NAS
/dev/sdb1 /var/ftp/sdb1 xfs rw,relatime,attr2,inode64,noquota 0 2
/dev/sdc1 /var/ftp/sdc1 xfs rw,relatime,attr2,inode64,noquota 0 2
-------------------------

%%%%%%%%%%%%%%%%%%%%
%%%%% Auto Defrag Enable
%%%%%%%%%%%%%%%%%%%%

sudo -e '/etc/systemd/system/fs-m.service' && sudo systemctl daemon-reload

%%%%%%%%%%%%%%%%%%%%
%%%%% Encryption
%%%%%%%%%%%%%%%%%%%%

sudo openssl req -x509 -nodes -days 7300 -newkey rsa:2048 -keyout '/etc/ssl/certs/vsftpd.pem' -out '/etc/ssl/certs/vsftpd.pem' && sudo chmod '600' '/etc/ssl/certs/vsftpd.pem'

sudo -e '/etc/vsftpd/vsftpd.conf' && sudo systemctl restart 'vsftpd'

-------------------------
ssl_enable=YES
allow_anon_ssl=NO
force_local_data_ssl=NO
force_local_logins_ssl=YES

ssl_tlsv1=YES
ssl_sslv2=NO
ssl_sslv3=NO

rsa_cert_file=/etc/ssl/certs/vsftpd.pem
rsa_private_key_file=/etc/ssl/certs/vsftpd.pem
-------------------------

####################################################################################################
####################################################################################################
#####
##### End
#####
####################################################################################################
####################################################################################################