%%%%%%%%%%%%%%%%%%%%%%%%%%%%%%%%%%%%%%%%%%%%%%%%%%
%%%%%%%%%%%%%%%%%%%%%%%%%%%%%%%%%%%%%%%%%%%%%%%%%%
%%%%%
%%%%% Information
%%%%%
%%%%%%%%%%%%%%%%%%%%%%%%%%%%%%%%%%%%%%%%%%%%%%%%%%
%%%%%%%%%%%%%%%%%%%%%%%%%%%%%%%%%%%%%%%%%%%%%%%%%%

- AMD Graphics Cards
- Ubuntu 16.04

%%%%%%%%%%%%%%%%%%%%%%%%%%%%%%%%%%%%%%%%%%%%%%%%%%
%%%%%%%%%%%%%%%%%%%%%%%%%%%%%%%%%%%%%%%%%%%%%%%%%%
%%%%%
%%%%% Query Clock Speeds
%%%%%
%%%%%%%%%%%%%%%%%%%%%%%%%%%%%%%%%%%%%%%%%%%%%%%%%%
%%%%%%%%%%%%%%%%%%%%%%%%%%%%%%%%%%%%%%%%%%%%%%%%%%

%%%%%%%%%%%%%%%%%%%%
%%%%% AMDGPU
%%%%%%%%%%%%%%%%%%%%

sudo watch -n '0.1' cat '/sys/kernel/debug/dri/0/amdgpu_pm_info'

%%%%%%%%%%%%%%%%%%%%
%%%%% Radeon
%%%%%%%%%%%%%%%%%%%%

sudo watch -n '0.1' cat '/sys/kernel/debug/dri/0/radeon_pm_info'

%%%%%%%%%%%%%%%%%%%%%%%%%%%%%%%%%%%%%%%%%%%%%%%%%%
%%%%%%%%%%%%%%%%%%%%%%%%%%%%%%%%%%%%%%%%%%%%%%%%%%
%%%%%
%%%%% Performance Level
%%%%%
%%%%%%%%%%%%%%%%%%%%%%%%%%%%%%%%%%%%%%%%%%%%%%%%%%
%%%%%%%%%%%%%%%%%%%%%%%%%%%%%%%%%%%%%%%%%%%%%%%%%%

%%%%%%%%%%%%%%%%%%%%
%%%%% Query
%%%%%%%%%%%%%%%%%%%%

cat '/sys/class/drm/card0/device/power_dpm_force_performance_level'

%%%%%%%%%%%%%%%%%%%%
%%%%% High Performance Level
%%%%%%%%%%%%%%%%%%%%

echo 'high' | sudo tee --append '/sys/class/drm/card0/device/power_dpm_force_performance_level' > '/dev/null'

%%%%%%%%%%%%%%%%%%%%
%%%%% Auto Performance Level
%%%%%%%%%%%%%%%%%%%%

echo 'auto' | sudo tee --append '/sys/class/drm/card0/device/power_dpm_force_performance_level' > '/dev/null'

%%%%%%%%%%%%%%%%%%%%%%%%%%%%%%%%%%%%%%%%%%%%%%%%%%
%%%%%%%%%%%%%%%%%%%%%%%%%%%%%%%%%%%%%%%%%%%%%%%%%%
%%%%%
%%%%% Dynamic Power Management Modes
%%%%%
%%%%%%%%%%%%%%%%%%%%%%%%%%%%%%%%%%%%%%%%%%%%%%%%%%
%%%%%%%%%%%%%%%%%%%%%%%%%%%%%%%%%%%%%%%%%%%%%%%%%%

%%%%%%%%%%%%%%%%%%%%
%%%%% Query
%%%%%%%%%%%%%%%%%%%%

cat '/sys/class/drm/card0/device/power_dpm_state'

%%%%%%%%%%%%%%%%%%%%
%%%%% High DPM
%%%%%%%%%%%%%%%%%%%%

echo 'performance' | sudo tee --append '/sys/class/drm/card0/device/power_dpm_state' > '/dev/null'

%%%%%%%%%%%%%%%%%%%%
%%%%% Balanced DPM
%%%%%%%%%%%%%%%%%%%%

echo 'balanced' | sudo tee --append '/sys/class/drm/card0/device/power_dpm_state' > '/dev/null'

%%%%%%%%%%%%%%%%%%%%%%%%%%%%%%%%%%%%%%%%%%%%%%%%%%
%%%%%%%%%%%%%%%%%%%%%%%%%%%%%%%%%%%%%%%%%%%%%%%%%%
%%%%%
%%%%% Kernel Module Options
%%%%%
%%%%%%%%%%%%%%%%%%%%%%%%%%%%%%%%%%%%%%%%%%%%%%%%%%
%%%%%%%%%%%%%%%%%%%%%%%%%%%%%%%%%%%%%%%%%%%%%%%%%%

%%%%%%%%%%%%%%%%%%%%
%%%%% AMDGPU
%%%%%%%%%%%%%%%%%%%%

modinfo -p 'amdgpu'

amdgpu.x

%%%%%%%%%%%%%%%%%%%%
%%%%% Radeon
%%%%%%%%%%%%%%%%%%%%

modinfo -p 'radeon'

radeon.x

####################################################################################################
####################################################################################################
#####
##### End
#####
####################################################################################################
####################################################################################################