%%%%%%%%%%%%%%%%%%%%%%%%%%%%%%%%%%%%%%%%%%%%%%%%%%
%%%%%%%%%%%%%%%%%%%%%%%%%%%%%%%%%%%%%%%%%%%%%%%%%%
%%%%%
%%%%% Information
%%%%%
%%%%%%%%%%%%%%%%%%%%%%%%%%%%%%%%%%%%%%%%%%%%%%%%%%
%%%%%%%%%%%%%%%%%%%%%%%%%%%%%%%%%%%%%%%%%%%%%%%%%%

- Huion H420

%%%%%%%%%%%%%%%%%%%%%%%%%%%%%%%%%%%%%%%%%%%%%%%%%%
%%%%%%%%%%%%%%%%%%%%%%%%%%%%%%%%%%%%%%%%%%%%%%%%%%
%%%%%
%%%%% Map to specific monitor
%%%%%
%%%%%%%%%%%%%%%%%%%%%%%%%%%%%%%%%%%%%%%%%%%%%%%%%%
%%%%%%%%%%%%%%%%%%%%%%%%%%%%%%%%%%%%%%%%%%%%%%%%%%

%%%%%%%%%%%%%%%%%%%%
%%%%% Get Monitor Name
%%%%%%%%%%%%%%%%%%%%

xrandr --listactivemonitors

%%%%%%%%%%%%%%%%%%%%
%%%%% Map Tablet to Monitor
%%%%%%%%%%%%%%%%%%%%

xinput map-to-output 'HUION Pen' 'MONITOR'

%%%%%%%%%%%%%%%%%%%%
%%%%% Hammerstorm-specific
%%%%%%%%%%%%%%%%%%%%

xinput map-to-output 'HUION Pen' 'DVI-D-0'

%%%%%%%%%%%%%%%%%%%%%%%%%%%%%%%%%%%%%%%%%%%%%%%%%%
%%%%%%%%%%%%%%%%%%%%%%%%%%%%%%%%%%%%%%%%%%%%%%%%%%
%%%%%
%%%%% Launcher
%%%%%
%%%%%%%%%%%%%%%%%%%%%%%%%%%%%%%%%%%%%%%%%%%%%%%%%%
%%%%%%%%%%%%%%%%%%%%%%%%%%%%%%%%%%%%%%%%%%%%%%%%%%

%%%%%%%%%%%%%%%%%%%%
%%%%% Tablet Monitor Mapper
%%%%%%%%%%%%%%%%%%%%

nano ~/'.local/share/applications/Tablet Monitor Mapper.desktop'

-------------------------
[Desktop Entry]
Name=Tablet Monitor Mapper
Categories=Utility;
Exec='/usr/bin/xinput' map-to-output 'HUION Pen' 'DVI-D-0'
Type=Application
StartupNotify=true
Icon=input-tablet
-------------------------

####################################################################################################
####################################################################################################
#####
##### End
#####
####################################################################################################
####################################################################################################